1427 0.794578 0.000416742
1426 0.795451 0.000238565
1379 0.796518 0.000225784
1378 0.798433 0.000325419
1331 -0.201822 0.00026177
1330 0.797856 0.000177833
1283 -0.204656 0.000231554
1282 0.797859 0.000345079
1243 -0.207911 0.000241884
1242 -0.203521 0.000353891
1203 -0.201715 0.000207657
1202 -0.204 0.000294456
1163 -0.20233 0.000272061
1162 -0.201488 0.000412324
1123 -0.202425 0.000207896
1122 -0.200331 0.000445705
